2 rendertest | A Book
…
#> <error: crayon::has_color() ?: TRUE 
#> result: A barfoo error>

2.1 Example

Print a tibble:

as_tibble(cars)

#> # A tibble: 50 x 2
#>    speed  dist
#>    <dbl> <dbl>
#>  1     4     2
#>  2     4    10
#>  3     7     4
#>  4     7    22
#>  5     8    16
#>  6     9    10
#>  7    10    18
#>  8    10    26
#>  9    10    34
#> 10    11    17
#> # … with 40 more rows
…
cat(blue("Hello", "world!\n"))

#> Hello world!
#> 

2.4 Set options

## from: https://github.com/r-lib/crayon/issues/96
options(crayon.enabled = NULL)

cat(blue("Hello", "world!\n"))
#> Hello world!

as_tibble(cars)
#> # A tibble: 50 x 2
#>    speed  dist
#>    <dbl> <dbl>
#>  1     4     2
#>  2     4    10
#>  3     7     4
#>  4     7    22
#>  5     8    16
#>  6     9    10
#>  7    10    18
#>  8    10    26
#>  9    10    34
#> 10    11    17
#> # … with 40 more rows

reset option

options(crayon.enabled = TRUE)

cat(blue("Hello", "world!\n"))

#> Hello world!
#> 

as_tibble(cars)

#> # A tibble: 50 x 2
#>    speed  dist
#>    <dbl> <dbl>
#>  1     4     2
#>  2     4    10
#>  3     7     4
#>  4     7    22
#>  5     8    16
#>  6     9    10
#>  7    10    18
#>  8    10    26
#>  9    10    34
#> 10    11    17
#> # … with 40 more rows
…
old.hooks <- fansi::set_knit_hooks(knitr::knit_hooks)
#> <STYLE type='text/css' scoped>
#> PRE.fansi SPAN {padding-top: .25em; padding-bottom: .25em};
#> </STYLE>

check output

cat(blue("Hello", "world!\n"))

#> Hello world!
#> 

as_tibble(cars)

#> # A tibble: 50 x 2
#>    speed  dist
#>    <dbl> <dbl>
#>  1     4     2
#>  2     4    10
#>  3     7     4
#>  4     7    22
#>  5     8    16
#>  6     9    10
#>  7    10    18
#>  8    10    26
#>  9    10    34
#> 10    11    17
#> # … with 40 more rows
…
